<?php
include "../../../konfigurasi/koneksi.php";

$pilih=$_GET['pilih'];
$untukdi=$_GET['untukdi'];

if ($pilih=='mapel' AND $untukdi=='tambah'){
	mysql_query("INSERT INTO sh_mapel
				(nama_mapel,deskripsi_mapel )
				VALUES
				(	'$_POST[nama_mapel]',
					'$_POST[deskripsi_mapel]')");
					
	header('location:../../mata_pelajaran.php');
}

elseif ($pilih=='mapel' AND $untukdi=='edit'){
	mysql_query("UPDATE sh_mapel SET 	nama_mapel ='$_POST[nama_mapel]',
										deskripsi_mapel ='$_POST[deskripsi_mapel]'
										WHERE id_mapel ='$_POST[id]'");						
	header('location:../../mata_pelajaran.php');
}


elseif ($pilih=='mapel' AND $untukdi=='hapus'){
	mysql_query("DELETE FROM sh_mapel WHERE id_mapel ='$_GET[id]'");					
	header('location:../../mata_pelajaran.php');
}

?>